{
    "m_ClassifierDirectory": "Watson/Scripts/Editor/Classifiers/",
    "m_TimeOut": 30.0,
    "m_MaxRestConnections": 5,
    "m_Credentials": [
        {
            "m_ServiceID": "SpeechToTextV1",
            "m_URL": "https://stream.watsonplatform.net/speech-to-text/api",
            "m_User": "8021baa7-dd5c-48d6-8470-8572ac6cf1a0",
            "m_Password": "sM8dm64tH5hI",
            "m_Apikey": null,
            "m_Note": null
        },
        {
            "m_ServiceID": "NaturalLanguageClassifierV1",
            "m_URL": "https://gateway.watsonplatform.net/natural-language-classifier/api",
            "m_User": "82b99862-1276-4cea-a450-4d6418f93a50",
            "m_Password": "E7BmWVP1PuIB",
            "m_Apikey": null,
            "m_Note": null
        }
    ],
    "m_Variables": []
}