%YAML 1.1
%TAG !u! tag:unity3d.com,2011:
--- !u!114 &11400000
MonoBehaviour:
  m_ObjectHideFlags: 0
  m_PrefabParentObject: {fileID: 0}
  m_PrefabInternal: {fileID: 0}
  m_GameObject: {fileID: 0}
  m_Enabled: 1
  m_EditorHideFlags: 0
  m_Script: {fileID: 11500000, guid: 8338f26893d62c1439f387800a8e1c9a, type: 3}
  m_Name: BuildingsOnTerrainFactory
  m_EditorClassIdentifier: 
  _baseMaterial: {fileID: 2100000, guid: dc7d236928baa4caebc6bf7666d814c5, type: 2}
  _mapIdType: 0
  _customMapId: mapbox.terrain-rgb
  _mapId: mapbox.terrain-rgb
  _heightModifier: 1
  _sampleCount: 40
  _addCollider: 0
  _addToLayer: 0
  _layerId: 0
  _useRelativeHeight: 1
